Binary Response (ELMR Chapter 2)
…
We convert the dataframe into a tibble for compatibility with
tidyverse.

wcgs <- wcgs %>% 
  as_tibble() %>%
  print(width = Inf)

## # A tibble: 3,154 × 13
##      age height weight   sdp   dbp  chol behave  cigs dibep chd   typechd 
##    <int>  <int>  <int> <int> <int> <int> <fct>  <int> <fct> <fct> <fct>   
##  1    49     73    150   110    76   225 A2        25 A     no    none    
##  2    42     70    160   154    84   177 A2        20 A     no    none    
##  3    42     69    160   110    78   181 B3         0 B     no    none    
##  4    41     68    152   124    78   132 B4        20 B     no    none    
##  5    59     70    150   144    86   255 B3        20 B     yes   infdeath
##  6    44     72    204   150    90   182 B4         0 B     no    none    
##  7    44     72    164   130    84   155 B4         0 B     no    none    
##  8    40     71    150   138    60   140 A2         0 A     no    none    
##  9    43     72    190   146    76   149 B3        25 B     no    none    
## 10    42     70    175   132    90   325 A2         0 A     no    none    
##    timechd arcus  
##      <int> <fct>  
##  1    1664 absent 
##  2    3071 present
##  3    3071 absent 
##  4    3064 absent 
##  5    1885 present
##  6    3102 absent 
##  7    3074 absent 
##  8    3071 absent 
##  9    3064 absent 
## 10    1032 present
## # … with 3,144 more rows
…
How do we choose \(\lambda\),
which determines the model size? One natural idea is to split the data
into a training set and a validation set. The training
set is used to fit the logistic regression at different \(\lambda\) values. Then the
validation set is used to evaluate and compare the
performance of different models. We will choose the model that gives the
best performance on the validation set.

First let’s remove cases with missing values

(wcgs <- wcgs %>% 
  select(-c(behave, typechd, timechd)) %>%
  drop_na())

## # A tibble: 3,140 × 11
##      age height weight   sdp   dbp  chol  cigs dibep chd   arcus     bmi
##    <int>  <int>  <int> <int> <int> <int> <int> <fct> <fct> <fct>   <dbl>
##  1    49     73    150   110    76   225    25 A     no    absent  1445.
##  2    42     70    160   154    84   177    20 A     no    present 1607.
##  3    42     69    160   110    78   181     0 B     no    absent  1630.
##  4    41     68    152   124    78   132    20 B     no    absent  1571.
##  5    59     70    150   144    86   255    20 B     yes   present 1506.
##  6    44     72    204   150    90   182     0 B     no    absent  1992.
##  7    44     72    164   130    84   155     0 B     no    absent  1601.
##  8    40     71    150   138    60   140     0 A     no    absent  1485.
##  9    43     72    190   146    76   149    25 B     no    absent  1855.
## 10    42     70    175   132    90   325     0 A     no    present 1758.
## # … with 3,130 more rows
…
Tuning grid

param_grid <- grid_regular(
  penalty(range = c(-6, 3)), 
  # mixture(),
  levels = 100 # c(100, 5)
  )
param_grid

## # A tibble: 100 × 1
##       penalty
##         <dbl>
##  1 0.000001  
##  2 0.00000123
##  3 0.00000152
##  4 0.00000187
##  5 0.00000231
##  6 0.00000285
##  7 0.00000351
##  8 0.00000433
##  9 0.00000534
## 10 0.00000658
## # … with 90 more rows
…
logit_fit %>%
  collect_metrics() %>%
  print(width = Inf) %>%
  filter(.metric == "roc_auc") %>%
  ggplot(mapping = aes(x = penalty, y = mean)) +
  geom_point() +
  labs(x = "Penalty", y = "CV AUC") +
  scale_x_log10()

## # A tibble: 200 × 7
##       penalty .metric  .estimator  mean     n std_err .config               
##         <dbl> <chr>    <chr>      <dbl> <int>   <dbl> <chr>                 
##  1 0.000001   accuracy binary     0.921     5 0.00489 Preprocessor1_Model001
##  2 0.000001   roc_auc  binary     0.739     5 0.0240  Preprocessor1_Model001
##  3 0.00000123 accuracy binary     0.921     5 0.00489 Preprocessor1_Model002
##  4 0.00000123 roc_auc  binary     0.739     5 0.0240  Preprocessor1_Model002
##  5 0.00000152 accuracy binary     0.921     5 0.00489 Preprocessor1_Model003
##  6 0.00000152 roc_auc  binary     0.739     5 0.0240  Preprocessor1_Model003
##  7 0.00000187 accuracy binary     0.921     5 0.00489 Preprocessor1_Model004
##  8 0.00000187 roc_auc  binary     0.739     5 0.0240  Preprocessor1_Model004
##  9 0.00000231 accuracy binary     0.921     5 0.00489 Preprocessor1_Model005
## 10 0.00000231 roc_auc  binary     0.739     5 0.0240  Preprocessor1_Model005
## # … with 190 more rows
…
