Variations on Logistic Regression (ELMR Chapter 4)
…
The amlxray data concerns the x-ray exposure and
childhood acute myeloid leukemia. The sets are matched on age, race, and
county of residence.

(amlxray <- as_tibble(amlxray))

## # A tibble: 238 × 11
##    ID    disease Sex   downs   age Mray  MupRay MlowRay Fray  Cray  CnRay
##    <fct>   <dbl> <fct> <fct> <int> <fct> <fct>  <fct>   <fct> <fct> <ord>
##  1 7004        1 F     no        0 no    no     no      no    no    1    
##  2 7004        0 F     no        0 no    no     no      no    no    1    
##  3 7006        1 M     no        6 no    no     no      no    yes   3    
##  4 7006        0 M     no        6 no    no     no      no    yes   2    
##  5 7009        1 F     no        8 no    no     no      no    no    1    
##  6 7009        0 F     no        8 no    no     no      no    no    1    
##  7 7010        1 M     yes       1 no    no     no      no    no    1    
##  8 7010        0 M     no        1 no    no     no      no    no    1    
##  9 7013        1 M     no        4 yes   no     yes     no    no    1    
## 10 7013        0 M     no        4 no    no     no      no    yes   2    
## # … with 228 more rows
…
      1 OR = Odds Ratio, CI = Confidence Interval

Separation (ELMR 2.7)

Let’s start with the famours Fisher Iris data. We restrict to
species setosa and versicolor and classify
them using predictors Sepal.Width and
Sepal.Length.

(irisr <- iris %>%
  as_tibble() %>%
  filter(Species == "setosa" | Species == "versicolor") %>%
  dplyr::select(Sepal.Width, Sepal.Length, Species))

## # A tibble: 100 × 3
##    Sepal.Width Sepal.Length Species
##          <dbl>        <dbl> <fct>  
##  1         3.5          5.1 setosa 
##  2         3            4.9 setosa 
##  3         3.2          4.7 setosa 
##  4         3.1          4.6 setosa 
##  5         3.6          5   setosa 
##  6         3.9          5.4 setosa 
##  7         3.4          4.6 setosa 
##  8         3.4          5   setosa 
##  9         2.9          4.4 setosa 
## 10         3.1          4.9 setosa 
## # … with 90 more rows
…
