Tree-Based Methods (ISL 8)
…
Hitters = read_csv("../data/Hitters.csv")

## Rows: 322 Columns: 20
## ── Column specification ────────────────────────────────────────────────────────
## Delimiter: ","
## chr  (3): League, Division, NewLeague
## dbl (17): AtBat, Hits, HmRun, Runs, RBI, Walks, Years, CAtBat, CHits, CHmRun...
## 
## ℹ Use `spec()` to retrieve the full column specification for this data.
## ℹ Specify the column types or set `show_col_types = FALSE` to quiet this message.

Hitters

## # A tibble: 322 × 20
##    AtBat  Hits HmRun  Runs   RBI Walks Years CAtBat CHits CHmRun CRuns  CRBI
##    <dbl> <dbl> <dbl> <dbl> <dbl> <dbl> <dbl>  <dbl> <dbl>  <dbl> <dbl> <dbl>
##  1   293    66     1    30    29    14     1    293    66      1    30    29
##  2   315    81     7    24    38    39    14   3449   835     69   321   414
##  3   479   130    18    66    72    76     3   1624   457     63   224   266
##  4   496   141    20    65    78    37    11   5628  1575    225   828   838
##  5   321    87    10    39    42    30     2    396   101     12    48    46
##  6   594   169     4    74    51    35    11   4408  1133     19   501   336
##  7   185    37     1    23     8    21     2    214    42      1    30     9
##  8   298    73     0    24    24     7     3    509   108      0    41    37
##  9   323    81     6    26    32     8     2    341    86      6    32    34
## 10   401    92    17    49    66    65    13   5206  1332    253   784   890
## # ℹ 312 more rows
## # ℹ 8 more variables: CWalks <dbl>, League <chr>, Division <chr>,
## #   PutOuts <dbl>, Assists <dbl>, Errors <dbl>, Salary <dbl>, NewLeague <chr>
…
