Generalized Additive Model (ELMR Chapter 15)
…
LA ozone concentration

The response is O3 (ozone level). The predictors are
temp (temperature at El Monte), ibh (inversion
base height at LAX), and ibt (inversion top temperature at
LAX).

ozone <- as_tibble(ozone) %>% print()

## # A tibble: 330 × 10
##       O3    vh  wind humidity  temp   ibh   dpg   ibt   vis   doy
##    <dbl> <dbl> <dbl>    <dbl> <dbl> <dbl> <dbl> <dbl> <dbl> <dbl>
##  1     3  5710     4       28    40  2693   -25    87   250    33
##  2     5  5700     3       37    45   590   -24   128   100    34
##  3     5  5760     3       51    54  1450    25   139    60    35
##  4     6  5720     4       69    35  1568    15   121    60    36
##  5     4  5790     6       19    45  2631   -33   123   100    37
##  6     4  5790     3       25    55   554   -28   182   250    38
##  7     6  5700     3       73    41  2083    23   114   120    39
##  8     7  5700     3       59    44  2654    -2    91   120    40
##  9     4  5770     8       27    54  5000   -19    92   120    41
## 10     6  5720     3       44    51   111     9   173   150    42
## # ℹ 320 more rows
…
